…
## Example

This is a basic example which shows you how to solve a common problem:

``` r
library(stat545BLunaPackage)
## basic example code
library(datateachr)
### this example group the vancouver_trees by its genus_name, and then sort by the count
group_and_sort_by_count(vancouver_trees, genus_name)
#> # A tibble: 97 × 2
#>    genus_name          count
#>    <chr>               <int>
#>  1 ALBIZIA                 1
#>  2 HALESIA                 1
#>  3 KALOPANAX               1
#>  4 CLERODENDRON            2
#>  5 CUPRESSOCYPARIS   X     2
#>  6 EUCALYPTUS              2
#>  7 MICHELIA                2
#>  8 OXYDENDRUM              2
#>  9 HIPPOPHAE               3
#> 10 PTELEA                  3
#> # … with 87 more rows
```
…
